{
  "orientation" : 0,
  "updateDelay" : 0.29999999999999999,
  "designModeSelected" : 0,
  "cachedDeviceHeight" : 667,
  "contentScale" : 1,
  "cachedDeviceWidth" : 375,
  "fullScreen" : false,
  "deviceType" : "custom",
  "sharedPrototype" : true,
  "propertyPanelToggleStates" : {

  },
  "projectId" : "54BAEA53-B843-4344-8E06-45577D6E3F3C",
  "deviceOrientation" : 0,
  "selectedHand" : "",
  "showBezel" : 0,
  "foldedCodeRanges" : [
    "{0, 189}",
    "{190, 345}",
    "{536, 280}",
    "{817, 667}",
    "{1485, 344}"
  ],
  "deviceScale" : "fit"
}