{
     "services": {
         "s1": {
             "name": "Compensation payments",

             "description" : "<p>You may be eligible for compensation payments if you have sustained physical or psychological impairment or incapacity related to your defence service. You may also be eligible for compensation payments if you are the dependant of a current or former ADF member who has died as a result of their defence service.<\/p>\r\n<p>Compensation paid for service-related injury, disease or death may include:<\/p>\r\n<ul><li>Disability pension<\/li>\r\n<li>Permanent impairment payment<\/li>\r\n<li>Incapacity payments<\/li>\r\n<li>War widow(er)'s pension<\/li>\r\n<li>Wholly dependent partner payment<\/li>\r\n<li>Eligible Young Person payment<\/li>\r\n<li>Orphan's pension<\/li>\r\n<li>Prisoner of War payments.<\/li>\r\n<\/ul><p>The type of payment and the amount payable depends on the period of service when your injury (or, in the case of dependents, the serving member\u2019s death) was sustained.<\/p>",

             "requirements": "<p>There are three types of claims for compensation<\/p>\r\n<ul>\r\n  <li>Claim for Liability for Injury or Disease<\/li>\r\n  <li>Apply for an increase in Disability pension<\/li>\r\n  <li>Apply for treatment for a specific medical condition<\/li>\r\n<\/ul>\r\n<p>Required documentation will vary depending on your claim type but may include:<\/p>\r\n<ul>\r\n<li>Service details<\/li>\r\n<li>Medical details and condition information<\/li>\r\n<li>Non-liability Health Care<\/li>\r\n<li>Tobacco and Alcohol <\/li>\r\n<li>Application for increase details <\/li>\r\n<li>Employment and lifestyle<\/li>\r\n<li>Other claims and payments<\/li>\r\n<li>Personal details<\/li>\r\n<li>Representative details<\/li>\r\n<\/ul>"
         },
         "s2": {
             "name": "Income support",
             "description" : "Lorem ipsum",
             "requirements": "Lorem ipsum dolor"
         },
         "s3": {
             "name": "Health cards",
             "description" : "Lorem ipsum",
             "requirements": "Lorem ipsum dolor"
         },
         "s4": {
             "name": "Rehabilitation",
             "description" : "Lorem ipsum",
             "requirements": "Lorem ipsum dolor"
         },
         "s5": {
             "name": "Mental health services & resources",
             "description" : "Lorem ipsum",
             "requirements": "Lorem ipsum dolor"
         },
         "s6": {
             "name": "Counselling",
             "description" : "Lorem ipsum",
             "requirements": "Lorem ipsum dolor"
         },
         "s7": {
             "name": "Wellbeing programs",
             "description" : "Lorem ipsum",
             "requirements": "Lorem ipsum dolor"
         }
     },

    "personTypes": [
        {
            "type": "Veteran",
            "services" : [ "s1", "s2", "s3", "s4", "s5", "s6", "s7" ]
        },

        {
            "type": "ADF Member (Serving or Former)",
            "services" : [ "s1", "s3", "s4", "s5" ]
        },

        {
            "type": "Reservist",
            "services" : [ "s4", "s5", "s6", "s7" ]
        },

        {
            "type": "Cadet",
            "services" : ["s6", "s7" ]
        },

        {
            "type": "Member of a peacekeeping force",
            "services" : ["s3", "s4", "s7" ]
        },

        {
            "type": "Dependent of a deceased veteran or ADF member",
            "services" : [ "s7" ]
        }
    ]
}
