<svg xmlns="http://www.w3.org/2000/svg" xmlns:xlink="http://www.w3.org/1999/xlink" viewBox="0 -1403 1920 1080">
  <defs>
    <style>
      .cls-1 {
        clip-path: url(#clip-Login_screen_landing_);
      }

      .cls-11, .cls-2 {
        fill: none;
      }

      .cls-2 {
        stroke: #95989a;
        opacity: 0.225;
      }

      .cls-3 {
        font-size: 36px;
        opacity: 0.916;
      }

      .cls-3, .cls-9 {
        font-family: Lato-Bold, Lato;
        font-weight: 700;
      }

      .cls-4, .cls-8 {
        fill: #fff;
      }

      .cls-4 {
        stroke: #c2c4c6;
      }

      .cls-5 {
        fill: #484848;
        font-size: 20px;
      }

      .cls-5, .cls-6 {
        font-family: Lato-Regular, Lato;
      }

      .cls-6 {
        font-size: 12px;
        letter-spacing: 0.04em;
        opacity: 0.92;
      }

      .cls-7 {
        fill: #00a3e0;
      }

      .cls-8 {
        font-size: 26px;
        font-family: OpenSans-Semibold, Open Sans;
        font-weight: 600;
        letter-spacing: 0.06em;
      }

      .cls-9 {
        fill: #313131;
        font-size: 16px;
      }

      .cls-10 {
        stroke: none;
      }

      .cls-12 {
        fill: #f3f3f3;
      }
    </style>
    <clipPath id="clip-Login_screen_landing_">
      <rect y="-1403" width="1920" height="1080"/>
    </clipPath>
  </defs>
  <g id="Login_screen_landing_" data-name="Login screen (landing)" class="cls-1">
    <rect class="cls-12" y="-1403" width="1920" height="1080"/>
    <line id="Line_1" data-name="Line 1" class="cls-2" x2="891" y2="2" transform="translate(517.5 -754.5)"/>
    <text id="New_to_member_portal_Register_here" data-name="New to member portal? Register here" class="cls-3" transform="translate(662 -661)"><tspan x="0" y="0">New to member portal? Register here</tspan></text>
    <g id="Rectangle_4" data-name="Rectangle 4" class="cls-4" transform="translate(602 -624)">
      <rect class="cls-10" width="720.6" height="76.66"/>
      <rect class="cls-11" x="0.5" y="0.5" width="719.6" height="75.66"/>
    </g>
    <text id="Enter_your_email_address" data-name="Enter your email address" class="cls-5" transform="translate(646.857 -578)"><tspan x="0" y="0">Enter your email address</tspan></text>
    <text id="Only_the_primary_policy_holder_can_register_for_member_portal_other_users_will_need_to_be_invited_by_the_primary_policy_holder_after_they_have_created_their_account." data-name="Only the primary policy holder can register for member portal, other users will need to be invited by the primary policy holder after they have created their account." class="cls-6" transform="translate(680 -532)"><tspan x="1.032" y="12">Only the primary policy holder can register for member portal, other users will need to be invited by </tspan><tspan x="103.824" y="26">the primary policy holder after they have created their account.</tspan></text>
    <g id="Group_3" data-name="Group 3" transform="translate(0 -1403)">
      <g id="Rectangle_1" data-name="Rectangle 1" class="cls-4" transform="translate(602 229)">
        <rect class="cls-10" width="720.6" height="76.66"/>
        <rect class="cls-11" x="0.5" y="0.5" width="719.6" height="75.66"/>
      </g>
      <text id="Enter_your_email_address-2" data-name="Enter your email address" class="cls-5" transform="translate(646.857 275)"><tspan x="0" y="0">Enter your email address</tspan></text>
      <g id="Rectangle_2" data-name="Rectangle 2" class="cls-4" transform="translate(602 341)">
        <rect class="cls-10" width="720.422" height="76.66"/>
        <rect class="cls-11" x="0.5" y="0.5" width="719.422" height="75.66"/>
      </g>
      <text id="Enter_your_password" data-name="Enter your password" class="cls-5" transform="translate(646.857 387)"><tspan x="0" y="0">Enter your password</tspan></text>
      <rect id="Rectangle_3" data-name="Rectangle 3" class="cls-7" width="720.92" height="76.585" transform="translate(602 491)"/>
      <text id="LOGIN" class="cls-8" transform="translate(918 539)"><tspan x="0" y="0">LOGIN</tspan></text>
      <text id="Your_health_journey_starts_here" data-name="Your health journey starts here" class="cls-3" transform="translate(714 192)"><tspan x="0" y="0">Your health journey starts here</tspan></text>
      <g id="Group_2" data-name="Group 2" transform="translate(0 32)">
        <text id="Remember_my_login_details" data-name="Remember my login details" class="cls-9" transform="translate(675.857 426)"><tspan x="0" y="0">Remember my login details</tspan></text>
        <path id="checkbox-marked-outline" d="M21.33,21.33H5.291V5.291H16.747V3H5.291A2.283,2.283,0,0,0,3,5.291V21.33a2.291,2.291,0,0,0,2.291,2.291H21.33a2.291,2.291,0,0,0,2.291-2.291V12.165H21.33m-12.7-1.054L7.01,12.738l5.155,5.155L23.621,6.437,22.005,4.81l-9.841,9.841Z" transform="translate(644 407)"/>
      </g>
      <g id="Group_1" data-name="Group 1" transform="translate(0 32)">
        <text id="Reset_your_password" data-name="Reset your password" class="cls-9" transform="translate(1129.857 426)"><tspan x="0" y="0">Reset your password</tspan></text>
        <path id="lock-reset" d="M14.024,2A11.1,11.1,0,1,1,4.73,19.133l1.754-1.388A8.866,8.866,0,1,0,5.23,11.993H8.294L4.142,16.135,0,11.993H2.987A11.1,11.1,0,0,1,14.024,2m3.287,9.149a1.024,1.024,0,0,1,1.01,1.022v5.119A1.026,1.026,0,0,1,17.3,18.311h-6.14a1.026,1.026,0,0,1-1.022-1.022V12.171a1.024,1.024,0,0,1,1.01-1.022V10.028a3.081,3.081,0,0,1,6.162,0v1.121M14.224,8.507A1.523,1.523,0,0,0,12.7,10.028v1.121h3.053V10.028A1.526,1.526,0,0,0,14.224,8.507Z" transform="translate(1098.207 406.793)"/>
      </g>
      <path id="eye" d="M13.457,9.6a3.4,3.4,0,1,0,3.4,3.4,3.4,3.4,0,0,0-3.4-3.4m0,9.059a5.662,5.662,0,1,1,5.662-5.662,5.662,5.662,0,0,1-5.662,5.662m0-14.155A13.393,13.393,0,0,0,1,12.993a13.381,13.381,0,0,0,24.913,0A13.393,13.393,0,0,0,13.457,4.5Z" transform="translate(1263.087 366.514)"/>
    </g>
  </g>
</svg>
